…
birthweight_df
```

    ## # A tibble: 4,342 × 20
    ##    babysex bhead blength   bwt delwt fincome frace gaweeks malform menarche
    ##    <fct>   <dbl>   <dbl> <dbl> <dbl>   <dbl> <fct>   <dbl> <fct>      <dbl>
    ##  1 female     34      51  3629   177      35 white    39.9 absent        13
    ##  2 male       34      48  3062   156      65 black    25.9 absent        14
    ##  3 female     36      50  3345   148      85 white    39.9 absent        12
    ##  4 male       34      52  3062   157      55 white    40   absent        14
    ##  5 female     34      52  3374   156       5 white    41.6 absent        13
    ##  6 male       33      52  3374   129      55 white    40.7 absent        12
    ##  7 female     33      46  2523   126      96 black    40.3 absent        14
    ##  8 female     33      49  2778   140       5 white    37.4 absent        12
    ##  9 male       36      52  3515   146      85 white    40.3 absent        11
    ## 10 male       33      50  3459   169      75 black    40.7 absent        12
    ## # … with 4,332 more rows, and 10 more variables: mheight <dbl>, momage <dbl>,
    ## #   mrace <fct>, parity <dbl>, pnumlbw <dbl>, pnumsga <dbl>, ppbmi <dbl>,
    ## #   ppwt <dbl>, smoken <dbl>, wtgain <dbl>
…
The residuals follows a normal distribution of a mean of 0.

## Compare the model to two others

Use `cross_mc` to prepare CV training and testing sets

``` r
#Splitting
cv_df = 
  modelr::crossv_mc(birthweight_df, length(birthweight_df)) 
#training
cv_df %>% pull(train) %>% .[[1]] %>% as_tibble
```

    ## # A tibble: 3,473 × 20
    ##    babysex bhead blength   bwt delwt fincome frace gaweeks malform menarche
    ##    <fct>   <dbl>   <dbl> <dbl> <dbl>   <dbl> <fct>   <dbl> <fct>      <dbl>
    ##  1 female     34      51  3629   177      35 white    39.9 absent        13
    ##  2 male       34      48  3062   156      65 black    25.9 absent        14
    ##  3 female     36      50  3345   148      85 white    39.9 absent        12
    ##  4 male       34      52  3062   157      55 white    40   absent        14
    ##  5 female     34      52  3374   156       5 white    41.6 absent        13
    ##  6 female     33      46  2523   126      96 black    40.3 absent        14
    ##  7 male       36      52  3515   146      85 white    40.3 absent        11
    ##  8 male       33      50  3459   169      75 black    40.7 absent        12
    ##  9 female     35      51  3317   130      55 white    43.4 absent        13
    ## 10 male       35      51  3459   146      55 white    39.4 absent        12
    ## # … with 3,463 more rows, and 10 more variables: mheight <dbl>, momage <dbl>,
    ## #   mrace <fct>, parity <dbl>, pnumlbw <dbl>, pnumsga <dbl>, ppbmi <dbl>,
    ## #   ppwt <dbl>, smoken <dbl>, wtgain <dbl>

``` r
#testing
cv_df %>% pull(test) %>% .[[1]] %>% as_tibble
```

    ## # A tibble: 869 × 20
    ##    babysex bhead blength   bwt delwt fincome frace gaweeks malform menarche
    ##    <fct>   <dbl>   <dbl> <dbl> <dbl>   <dbl> <fct>   <dbl> <fct>      <dbl>
    ##  1 male       33      52  3374   129      55 white    40.7 absent        12
    ##  2 female     33      49  2778   140       5 white    37.4 absent        12
    ##  3 female     35      48  3175   158      75 white    39.7 absent        13
    ##  4 female     35      53  3345   127      65 black    39.7 absent        14
    ##  5 male       34      63  3175   143      25 white    41.9 absent        13
    ##  6 female     35      52  3289   135      55 white    40.6 absent        13
    ##  7 male       35      52  3232   121      75 asian    42.3 absent        13
    ##  8 female     34      49  2948   135      75 white    42.7 absent        12
    ##  9 male       34      52  3118   130      75 white    41   absent        12
    ## 10 male       33      50  3175   168      25 white    40   absent        13
    ## # … with 859 more rows, and 10 more variables: mheight <dbl>, momage <dbl>,
    ## #   mrace <fct>, parity <dbl>, pnumlbw <dbl>, pnumsga <dbl>, ppbmi <dbl>,
    ## #   ppwt <dbl>, smoken <dbl>, wtgain <dbl>
…
weather_df
```

    ## # A tibble: 365 × 6
    ##    name           id          date        prcp  tmax  tmin
    ##    <chr>          <chr>       <date>     <dbl> <dbl> <dbl>
    ##  1 CentralPark_NY USW00094728 2017-01-01     0   8.9   4.4
    ##  2 CentralPark_NY USW00094728 2017-01-02    53   5     2.8
    ##  3 CentralPark_NY USW00094728 2017-01-03   147   6.1   3.9
    ##  4 CentralPark_NY USW00094728 2017-01-04     0  11.1   1.1
    ##  5 CentralPark_NY USW00094728 2017-01-05     0   1.1  -2.7
    ##  6 CentralPark_NY USW00094728 2017-01-06    13   0.6  -3.8
    ##  7 CentralPark_NY USW00094728 2017-01-07    81  -3.2  -6.6
    ##  8 CentralPark_NY USW00094728 2017-01-08     0  -3.8  -8.8
    ##  9 CentralPark_NY USW00094728 2017-01-09     0  -4.9  -9.9
    ## 10 CentralPark_NY USW00094728 2017-01-10     0   7.8  -6  
    ## # … with 355 more rows
…
boot_straps
```

    ## # A tibble: 5,000 × 3
    ##    id    r_squared log_beta_0_beta_1
    ##    <chr>     <dbl>             <dbl>
    ##  1 0001      0.912              2.02
    ##  2 0002      0.917              2.03
    ##  3 0003      0.918              2.01
    ##  4 0004      0.897              2.05
    ##  5 0005      0.924              2.02
    ##  6 0006      0.917              2.01
    ##  7 0007      0.909              2.02
    ##  8 0008      0.923              2.01
    ##  9 0009      0.902              2.03
    ## 10 0010      0.921              2.02
    ## # … with 4,990 more rows
…
